'p1','p2','p3'
0.0661,0.2035271809103018,0.7303728190896981
0.06610603085249327,0.2035,0.7303939691475068
0.06612825158532765,0.2034,0.7304717484146723
0.06615050442501634,0.2033,0.7305494955749836
