x,y
0.25,0.5333026735360201
0.25252525252525254,0.5301000030246199
0.255050505050505,0.5269005920625929
0.25757575757575757,0.5237045623015749
0.2601010101010101,0.5205120343210209
0.26262626262626265,0.5173231276318174
0.26515151515151514,0.5141379606799524
0.2676767676767677,0.5109566508502423
0.2702020202020202,0.5077793144701142
0.2727272727272727,0.5046060668134449
0.27525252525252525,0.5014370221044513
0.2777777777777778,0.4982722935216364
0.2803030303030303,0.4951119932017845
0.2828282828282828,0.49195623224400864
0.28535353535353536,0.48880512071384813
0.2878787878787879,0.48565876764741345
0.2904040404040404,0.48251728105557934
0.29292929292929293,0.47938076792822576
0.29545454545454547,0.4762493342385228
0.29797979797979796,0.473123084947261
0.3005050505050505,0.4700021240072267
0.30303030303030304,0.46688655436761756
0.3055555555555556,0.46377647797850213
0.30808080808080807,0.46067199579531976
0.3106060606060606,0.45757320778341953
0.31313131313131315,0.4544802129226388
0.31565656565656564,0.4513931092119208
0.3181818181818182,0.44831199367396674
0.3207070707070707,0.4452369623599273
0.32323232323232326,0.44216811035412673
0.32575757575757575,0.43910553177882267
0.3282828282828283,0.43604931979899997
0.33080808080808083,0.4329995666271954
0.3333333333333333,0.42995636352835553
0.33585858585858586,0.4269198008247256
0.3383838383838384,0.42388996790076694
0.3409090909090909,0.42086695320810474
0.3434343434343434,0.41785084427050473
0.34595959595959597,0.41484172768887506
0.3484848484848485,0.4118396891462972
0.351010101010101,0.4088448134130816
0.35353535353535354,0.405857184351848
0.3560606060606061,0.4028768849226307
0.35858585858585856,0.3999039971880071
0.3611111111111111,0.3969386023182481
0.36363636363636365,0.39398078059649166
0.3661616161616162,0.3910306114239358
0.3686868686868687,0.38808817332505313
0.3712121212121212,0.3851535439528248
0.37373737373737376,0.3822268000939921
0.37626262626262624,0.37930801767432754
0.3787878787878788,0.37639727176392246
0.3813131313131313,0.3734946365824907
0.3838383838383838,0.3706001855046892
0.38636363636363635,0.3677139910654532
0.3888888888888889,0.36483612496534545
0.39141414141414144,0.36196665807591943
0.3939393939393939,0.35910566044509623
0.39646464646464646,0.35625320130255217
0.398989898989899,0.35340934906512006
0.4015151515151515,0.3505741713421994
0.40404040404040403,0.34774773494117833
0.4065656565656566,0.3449301058728651
0.4090909090909091,0.3421213493569273
0.4116161616161616,0.3393215298273409
0.41414141414141414,0.3365307109378466
0.4166666666666667,0.3337489555674125
0.41919191919191917,0.33097632582570413
0.4217171717171717,0.32821288305856017
0.42424242424242425,0.3254586878534729
0.42676767676767674,0.32271380004507383
0.4292929292929293,0.31997827872062334
0.4318181818181818,0.31725218222550333
0.43434343434343436,0.3145355681687129
0.43686868686868685,0.31182849342836744
0.4393939393939394,0.309131014157197
0.44191919191919193,0.30644318578804886
0.4444444444444444,0.30376506303938794
0.44696969696969696,0.3010966999207992
0.4494949494949495,0.29843814973848914
0.45202020202020204,0.29578946510078546
0.45454545454545453,0.2931506979236362
0.45707070707070707,0.2905218994361066
0.4595959595959596,0.28790312018587316
0.4621212121212121,0.2852944100447144
0.46464646464646464,0.2826958182139993
0.4671717171717172,0.2801073932301699
0.4696969696969697,0.2775291829702207
0.4722222222222222,0.274961234657173
0.47474747474747475,0.27240359486554233
0.4772727272727273,0.26985630952680195
0.4797979797979798,0.2673194239348386
0.4823232323232323,0.2647929827514011
0.48484848484848486,0.2622770300115434
0.48737373737373735,0.25977160912905717
0.4898989898989899,0.2572767629018987
0.49242424242424243,0.25479253351760595
0.494949494949495,0.25231896255870595
0.49747474747474746,0.24985609100811415
0.5,0.24740395925452294
