x,y
0.75,0.875
0.7525252525252525,0.8774869911233547
0.7550505050505051,0.879897459442914
0.7575757575757576,0.8822314049586777
0.76010101010101,0.8844888276706458
0.7626262626262627,0.8866697275788186
0.7651515151515151,0.8887741046831956
0.7676767676767676,0.8908019589837771
0.7702020202020202,0.8927532904805632
0.7727272727272727,0.8946280991735537
0.7752525252525253,0.8964263850627487
0.7777777777777778,0.8981481481481481
0.7803030303030303,0.899793388429752
0.7828282828282829,0.9013621059075605
0.7853535353535354,0.9028543005815733
0.7878787878787878,0.9042699724517906
0.7904040404040404,0.9056091215182125
0.7929292929292929,0.9068717477808387
0.7954545454545454,0.9080578512396694
0.797979797979798,0.9091674318947046
0.8005050505050505,0.9102004897459443
0.803030303030303,0.9111570247933883
0.8055555555555556,0.9120370370370371
0.8080808080808081,0.9128405264768901
0.8106060606060606,0.9135674931129476
0.8131313131313131,0.9142179369452097
0.8156565656565656,0.9147918579736761
0.8181818181818182,0.915289256198347
0.8207070707070707,0.9157101316192225
0.8232323232323232,0.9160544842363024
0.8257575757575758,0.9163223140495869
0.8282828282828283,0.9165136210590756
0.8308080808080808,0.9166284052647689
0.8333333333333334,0.9166666666666667
0.8358585858585859,0.9166284052647689
0.8383838383838383,0.9165136210590755
0.8409090909090909,0.9163223140495868
0.8434343434343434,0.9160544842363024
0.8459595959595959,0.9157101316192225
0.8484848484848485,0.9152892561983471
0.851010101010101,0.9147918579736761
0.8535353535353535,0.9142179369452097
0.8560606060606061,0.9135674931129477
0.8585858585858586,0.9128405264768901
0.8611111111111112,0.912037037037037
0.8636363636363636,0.9111570247933884
0.8661616161616161,0.9102004897459443
0.8686868686868687,0.9091674318947047
0.8712121212121212,0.9080578512396694
0.8737373737373737,0.9068717477808387
0.8762626262626263,0.9056091215182125
0.8787878787878788,0.9042699724517906
0.8813131313131313,0.9028543005815732
0.8838383838383839,0.9013621059075605
0.8863636363636364,0.8997933884297521
0.8888888888888888,0.8981481481481481
0.8914141414141414,0.8964263850627487
0.8939393939393939,0.8946280991735537
0.8964646464646465,0.8927532904805633
0.898989898989899,0.8908019589837772
0.9015151515151515,0.8887741046831955
0.9040404040404041,0.8866697275788185
0.9065656565656566,0.8844888276706458
0.9090909090909091,0.8822314049586777
0.9116161616161617,0.879897459442914
0.9141414141414141,0.8774869911233547
0.9166666666666666,0.875
0.9191919191919192,0.8724364860728497
0.9217171717171717,0.8697964493419039
0.9242424242424242,0.8670798898071626
0.9267676767676768,0.8642868074686257
0.9292929292929293,0.8614172023262933
0.9318181818181818,0.8584710743801653
0.9343434343434344,0.8554484236302419
0.9368686868686869,0.8523492500765227
0.9393939393939394,0.8491735537190084
0.9419191919191919,0.8459213345576982
0.9444444444444444,0.8425925925925926
0.946969696969697,0.8391873278236914
0.9494949494949495,0.8357055402509949
0.952020202020202,0.8321472298745025
0.9545454545454546,0.828512396694215
0.9570707070707071,0.8248010407101316
0.9595959595959596,0.8210131619222528
0.9621212121212122,0.8171487603305785
0.9646464646464646,0.8132078359351087
0.9671717171717171,0.8091903887358431
0.9696969696969697,0.8050964187327825
0.9722222222222222,0.8009259259259259
0.9747474747474747,0.7966789103152738
0.9772727272727273,0.7923553719008265
0.9797979797979798,0.7879553106825833
0.9823232323232324,0.7834787266605447
0.9848484848484849,0.7789256198347108
0.9873737373737373,0.7742959902050811
0.98989898989899,0.7695898377716559
0.9924242424242424,0.7648071625344353
0.9949494949494949,0.759947964493419
0.9974747474747475,0.7550122436486073
1.0,0.75
