p1,p2,p3
0.44300651488596365,0.227,0.32999348511403637
0.44331748400602666,0.226,0.33068251599397336
0.4436244471496652,0.225,0.3313755528503348
0.4439273644706265,0.224,0.3320726355293735
0.444,0.22375653560893513,0.3322434643910649
0.4442253399602911,0.223,0.3327746600397089
0.4445189289034797,0.222,0.33348107109652037
0.44480836538765156,0.221,0.33419163461234846
0.445,0.2203276946435748,0.3346723053564251
0.44509325488419843,0.22,0.33490674511580165
0.44537320120397456,0.219,0.3356267987960254
0.44564888646626516,0.218,0.3363511135337349
0.44592026892042547,0.217,0.33707973107957456
0.446,0.21670097283046627,0.33729902716953375
0.4461865998155106,0.216,0.33781340018448947
0.446448258346768,0.215,0.3385517416532321
0.4467055025897606,0.214,0.3392944974102394
0.4469582896067137,0.213,0.34004171039328634
0.447,0.21283170720443556,0.3401682927955644
0.44720579766078605,0.212,0.340794202339214
0.4474486206915452,0.211,0.3415513793084549
0.447686871979433,0.21,0.342313128020567
0.4479205073387222,0.209,0.3430794926612778
0.448,0.20865234837370072,0.3433476516262993
0.44814891956499997,0.208,0.3438510804350001
0.44837234419606303,0.207,0.34462765580393706
0.44859103517914894,0.206,0.34540896482085115
0.44880494701569196,0.205,0.3461950529843081
0.449,0.20406698656599043,0.3469330134340095
0.44901398105765655,0.204,0.3469860189423435
0.4492174283434111,0.203,0.3477825716565888
0.4494159753829728,0.202,0.34858402461702725
0.44960957529559303,0.201,0.3493904247044069
0.4497981807949188,0.2,0.35020181920508126
0.44998174418312104,0.199,0.3510182558168789
0.45,0.19889751674642392,0.3511024832535761
0.4501596150090282,0.198,0.35184038499097187
0.4503322971029129,0.197,0.3526677028970871
0.45049981029774383,0.196,0.3535001897022562
0.45066210539596124,0.195,0.3543378946040388
0.4508191327603066,0.194,0.3551808672396934
0.4509708423073333,0.193,0.3560291576926667
0.451,0.19280041947699714,0.3561995805230028
0.4511167429460102,0.192,0.3568832570539899
0.45125713446593524,0.191,0.3577428655340647
0.4513920751840756,0.19,0.35860792481592435
0.4515215133863968,0.189,0.3594784866136032
0.4516453968813051,0.188,0.3603546031186949
0.45176367299244186,0.187,0.3612363270075581
0.45187628855134193,0.186,0.3621237114486581
0.4519831898899524,0.185,0.36301681011004755
0.452,0.1848334921023311,0.3631665078976689
0.4520840054340278,0.184,0.3639159945659722
0.4521789561516547,0.183,0.3648210438483453
0.4522680503089351,0.182,0.3657319496910649
0.4523512324049877,0.181,0.36664876759501236
0.45242844640290675,0.18,0.3675715535970933
0.45249963572140467,0.179,0.3685003642785954
0.45256474322628737,0.178,0.36943525677371264
0.45262371122175793,0.177,0.3703762887782421
0.45267648144154415,0.176,0.37132351855845586
0.452722995039845,0.175,0.372277004960155
0.4527631925820905,0.174,0.3732368074179095
0.45279701403551076,0.173,0.37420298596448925
0.4528243987595082,0.172,0.3751756012404918
0.452,0.15268440859319682,0.3953155914068032
0.45,0.14050391206920912,0.40949608793079095
0.4496640131222468,0.139,0.4113359868777532
0.4491840808432774,0.137,0.41381591915672256
0.44866587827421717,0.135,0.41633412172578277
0.4481090833738066,0.133,0.4188909166261934
0.448,0.1326270199647067,0.41937298003529333
0.4475117090109396,0.131,0.4214882909890604
0.4468737892176569,0.129,0.42412621078234314
0.4461932209381265,0.127,0.4268067790618735
0.446,0.12645639561214794,0.4275436043878521
0.44546906434957945,0.125,0.42953093565042055
0.44470040643629605,0.123,0.43229959356370395
0.444,0.12127530461448476,0.4347246953855153
0.44388577922176903,0.121,0.43511422077823103
0.44302356332217097,0.119,0.43797643667782904
0.44211200628163494,0.117,0.44088799371836507
0.442,0.1167630063421014,0.44123699365789865
0.44163715914105495,0.116,0.44236284085894506
0.44114994103018246,0.115,0.44385005896981755
0.441,0.11469923922643788,0.44430076077356206
0.44064923233022174,0.114,0.4453507676697782
0.4401356738972839,0.113,0.4468643261027161
0.44,0.11274163132691307,0.447258368673087
0.4396081215716777,0.112,0.4483918784283223
0.43906744491199373,0.111,0.4499325550880062
0.439,0.11087789951997029,0.45012210048002965
0.43851202662593103,0.11,0.451487973374069
0.438,0.10909931415572004,0.45290068584428
0.43794318525013065,0.109,0.45305681474986936
0.4373590753217936,0.108,0.4546409246782065
0.437,0.10739840541743456,0.4556015945825654
0.4367606955506165,0.107,0.45623930444938354
0.4361473197030562,0.106,0.4578526802969438
0.436,0.10576466722545215,0.4582353327745479
0.4355182649518995,0.105,0.4594817350481005
0.435,0.10419433054484713,0.46080566945515283
0.4348741928692278,0.104,0.4611258071307722
0.43421381692429045,0.103,0.4627861830757096
0.434,0.10268260249814748,0.4633173975018526
0.4335372039076418,0.102,0.4644627960923583
0.433,0.1012233487788855,0.46577665122111445
0.43284451364156656,0.101,0.4661554863584334
0.4321347660510017,0.1,0.46786523394899826
0.432,0.09981370692457713,0.4681862930754229
0.4314075360634135,0.099,0.4695924639365865
0.431,0.09845095583765977,0.47054904416234017
0.4306630886096579,0.098,0.4713369113903422
0.43,0.0971291667921459,0.47287083320785417
0.4299010026938716,0.097,0.47309899730612837
0.42912030859827904,0.096,0.4748796914017209
0.429,0.09584869353396741,0.47515130646603254
0.4283207316749418,0.095,0.47667926832505825
0.428,0.09460656336260441,0.47739343663739564
0.4275022537456091,0.094,0.478497746254391
0.427,0.09339895242104741,0.47960104757895256
0.4266644062126223,0.093,0.48033559378737767
0.426,0.09222420198101135,0.48177579801898873
0.4258067066711937,0.092,0.48219329332880634
0.425,0.09108075201880211,0.48391924798119784
0.42492865838987326,0.091,0.48407134161012677
0.42402961353201146,0.09,0.4859703864679886
0.424,0.0899676243833161,0.486032375616684
0.4231089494767396,0.089,0.48789105052326043
0.423,0.08888370999357247,0.4881162900064275
0.4221664521018771,0.088,0.48983354789812295
0.422,0.08782651761701707,0.490173482382983
0.4212015660899681,0.087,0.49179843391003186
0.421,0.08679484193729516,0.4922051580627048
0.42021371902500804,0.086,0.493786280974992
0.42,0.08578754237400271,0.49421245762599736
0.41920232072245933,0.085,0.49579767927754065
0.419,0.08480353850407915,0.4961964614959208
0.4181667625276882,0.084,0.49783323747231184
0.418,0.08384180585418811,0.49815819414581197
0.4171064165810501,0.083,0.4998935834189499
0.417,0.08290137202872275,0.5000986279712772
0.4160206350477216,0.082,0.5019793649522785
0.416,0.08198131314182987,0.5020186868581702
0.415,0.08108189616865924,0.5039181038313407
0.41490830487310604,0.081,0.504091695126894
0.414,0.08020165237542606,0.505798347624574
0.4137689417943985,0.08,0.5062310582056015
0.413,0.07933950367345535,0.5076604963265446
0.4126019265576234,0.079,0.5083980734423766
0.412,0.07849467668664567,0.5095053233133544
0.4114065163125421,0.078,0.5105934836874579
0.411,0.07766643348863657,0.5113335665113634
0.4101819434624807,0.077,0.5128180565375193
0.41,0.07685406927187738,0.5131459307281228
0.409,0.07605769498453888,0.5149423050154611
0.40892704692173953,0.076,0.5150729530782605
0.408,0.0752780775767496,0.5167219224232504
0.4076402838258758,0.075,0.5173597161741242
0.407,0.07451256898582573,0.5184874310141743
0.406321713038153,0.074,0.519678286961847
0.406,0.07376056905950663,0.5202394309404933
0.405,0.07302179438059252,0.5219782056194074
0.4049702946643546,0.073,0.5220297053356455
0.404,0.07229880925022607,0.523701190749774
0.403583400759116,0.072,0.5244165992408841
0.403,0.07158780881831675,0.5254121911816833
0.4021617345276923,0.071,0.5268382654723077
0.402,0.07088827636225994,0.5271117236377401
0.401,0.07020239876756076,0.5287976012324392
0.40070272064245865,0.07,0.5292972793575412
0.4,0.06952863648556634,0.5304713635144336
0.39920581824403634,0.069,0.5317941817559637
0.399,0.0688650171316462,0.5321349828683538
0.398,0.06821390895702531,0.5337860910429747
0.39766900968873514,0.068,0.5343309903112647
0.397,0.0675739690384426,0.5354260309615574
0.39609159933357596,0.067,0.536908400666424
0.396,0.06694296759675819,0.5370570324032418
0.395,0.06632475094696265,0.5386752490530373
0.3944705917476863,0.066,0.5395294082523137
0.394,0.06571551774514106,0.5402844822548589
0.393,0.06511563348379866,0.5418843665162013
0.39280581953724164,0.065,0.5421941804627584
0.392,0.06452706942915916,0.5434729305708408
0.39109465484142897,0.064,0.544905345158571
0.391,0.06394568809284173,0.5450543119071583
0.39,0.063376030637616,0.546623969362384
0.3893345679352048,0.063,0.5476654320647951
0.389,0.06281365050738331,0.5481863494926167
0.388,0.06226088350108578,0.5497391164989142
0.387524329757916,0.062,0.5504756702420839
0.387,0.061716539235428386,0.5512834607645716
0.386,0.06118017931445944,0.5528198206855406
0.3856614729881769,0.061,0.5533385270118232
0.385,0.06065294957198017,0.5543470504280198
0.384,0.06013253391270326,0.5558674660872968
0.3837433743247986,0.06,0.5562566256752013
0.383,0.05962153822023572,0.5573784617797642
0.382,0.05911662336752006,0.5588833766324799
0.38176724199739565,0.059,0.5592327580026044
0.381,0.0586210191997062,0.5603789808002938
0.38,0.058131179975574564,0.5618688200244254
0.3797301020724058,0.058,0.5622698979275942
0.379,0.057650160025649586,0.5633498399743504
0.378,0.05717498851156328,0.5648250114884367
0.37762878341756806,0.057,0.565371216582432
0.377,0.056707778134822445,0.5662922218651776
0.376,0.05624688272173036,0.5677531172782696
0.3754599011698856,0.056,0.5685400988301144
0.375,0.055792737534653636,0.5692072624653464
0.374,0.055345742035462844,0.5706542579645372
0.3732198385314023,0.055,0.5717801614685977
0.373,0.05490394565479295,0.572096054345207
0.372,0.054470488474394445,0.5735295115256056
0.371,0.05404087968460458,0.5749591203153954
0.3709040848251698,0.054,0.5750959151748302
0.37,0.05362008374000868,0.5763799162599913
0.369,0.05320357682603375,0.5777964231739663
0.3685070660493318,0.053,0.5784929339506681
0.368,0.05279352646209238,0.5792064735379077
0.367,0.0523897899016318,0.5806102100983682
0.36602573190101384,0.052,0.5819742680989861
0.366,0.0519898495915594,0.5820101504084406
0.365,0.051598564101450924,0.5834014358985491
0.364,0.0512108596085673,0.5847891403914327
0.363451339585263,0.051,0.585548660414737
0.363,0.05082897582758615,0.5861710241724138
0.362,0.050453335711269726,0.5875466642887303
0.361,0.05008118756413856,0.5889188124358614
0.36077995733502904,0.05,0.589220042664971
0.36,0.04971626064022387,0.5902837393597762
0.359,0.049355807118027305,0.5916441928819727
0.35800347506117236,0.049,0.5929965249388276
0.358,0.04899877666259486,0.5930012233374051
0.357,0.04864973660378367,0.5943502633962163
0.356,0.04830403073338507,0.5956959692666149
0.35511210710614943,0.048,0.5968878928938506
0.355,0.04796215196135191,0.5970378480386481
0.354,0.047627517713951587,0.5983724822860484
0.353,0.04729613916796665,0.5997038608320334
0.3520975818233408,0.047,0.6009024181766592
0.352,0.04696842792194974,0.6010315720780502
0.351,0.04664779331403363,0.6023522066859663
0.35,0.04633033924159815,0.6036696607584019
0.349,0.04601605826302869,0.6049839417369713
0.34894843092505745,0.046,0.6050515690749425
0.348,0.04570882238151539,0.6062911776184846
0.347,0.04540490634653924,0.6075950936534608
0.346,0.045104091921914426,0.6088959080780856
0.3456505786358798,0.045,0.6093494213641202
0.345,0.04480892813378485,0.6101910718662151
0.344,0.04451817912321761,0.6114818208767824
0.343,0.044230463152966366,0.6127695368470336
0.341,0.04366855441042368,0.6153314455895763
0.339,0.04312157327272256,0.6178784267272774
0.337,0.04259191551918138,0.6204080844808186
0.335,0.04207547248311733,0.6229245275168827
0.333,0.04157632014370056,0.6254236798562994
0.331,0.04108951231601032,0.6279104876839897
0.329,0.04061918580010449,0.6303808141998956
0.327,0.040161150207825826,0.6328388497921742
0.325,0.03971802933447787,0.6352819706655222
0.323,0.03928794019828316,0.6377120598017169
0.321,0.03887045790938905,0.640129542090611
0.319,0.03846752409787621,0.6425324759021238
0.317,0.038075190236905226,0.6449248097630949
0.315,0.037697623047485716,0.6473023769525144
0.313,0.037331474970386094,0.6496685250296139
0.311,0.03697602939552852,0.6520239706044715
0.309,0.03663534798922082,0.6543646520107792
0.307,0.03630483633523305,0.656695163664767
0.305,0.0359846922938162,0.6590153077061839
0.303,0.03567876673549129,0.6613212332645088
0.301,0.03538280756176561,0.6636171924382345
0.299,0.035096801157914664,0.6659031988420854
0.297,0.03482323857533542,0.6681767614246646
0.295,0.03456080819776318,0.6704391918022369
0.293,0.03430814614846907,0.672691853851531
0.291,0.03406524355276577,0.6749347564472343
0.289,0.03383445462190579,0.6771655453780943
0.287,0.033614182853339926,0.6793858171466601
0.285,0.03340350378080143,0.6815964962191986
0.283,0.03320241309203014,0.68379758690797
0.281,0.03301090741296837,0.6859890925870316
0.2808817149000635,0.033,0.6861182850999364
0.28,0.0329198998305035,0.6870801001694965
0.279,0.03283140658019611,0.6881685934198039
0.278,0.032745272874925936,0.6892547271250741
0.277,0.03266149869981818,0.6903385013001818
0.276,0.03258008409836593,0.6914199159016341
0.275,0.032501029172612134,0.6924989708273879
0.274,0.0324243340833385,0.6935756659166614
0.273,0.03234999905026163,0.6946500009497384
0.272,0.03227802435223643,0.6957219756477635
0.271,0.032208410327467206,0.6967915896725327
0.27,0.03214115737372593,0.6978588426262741
0.269,0.03207626594857844,0.6989237340514215
0.268,0.03201373656961801,0.699986263430382
0.26777180309889576,0.032,0.7002281969011042
0.267,0.031954231762950064,0.7010457682370499
0.266,0.03189725135103835,0.7021027486489616
0.265,0.03184260012245719,0.7031573998775428
0.264,0.03179027889996433,0.7042097211000357
0.263,0.03174028856637995,0.7052597114336201
0.262,0.03169263006487076,0.7063073699351292
0.261,0.031647304399241995,0.707352695600758
0.26,0.031604312634238026,0.708395687365762
0.259,0.031563655895851354,0.7094363441041487
0.258,0.03152533537164044,0.7104746646283595
0.257,0.03148935231105605,0.7115106476889439
0.256,0.03145570802577666,0.7125442919742233
0.255,0.031424403890052965,0.713575596109947
0.254,0.031395441341061245,0.7146045586589388
0.253,0.03136882187926643,0.7156311781207336
0.252,0.031344547068794436,0.7166554529312056
0.251,0.031322618537813894,0.7176773814621861
0.25,0.03130303797892814,0.7186969620210719
0.249,0.03128580714957677,0.7197141928504233
0.248,0.03127092787244714,0.7207290721275529
0.247,0.03125840203589663,0.7217415979641034
0.246,0.031248231594384803,0.7227517684056152
0.245,0.031240418568916448,0.7237595814310835
0.244,0.031234965047495265,0.7247650349525048
0.243,0.031231873185588687,0.7257681268144113
0.242,0.031231145206603552,0.7267688547933965
0.241,0.03123278340237333,0.7277672165976267
0.24,0.031236790133657096,0.7287632098663429
0.239,0.031243167830649596,0.7297568321693504
0.238,0.03125191899350408,0.7307480810064959
0.237,0.03126304619286674,0.7317369538071332
0.236,0.031276552070423756,0.7327234479295762
0.235,0.03129243933946101,0.733707560660539
0.234,0.0313107107854367,0.7346892892145633
0.233,0.03133136926656682,0.7356686307334332
0.232,0.03135441771442426,0.7366455822855758
0.231,0.0313798591345516,0.7376201408654484
0.23,0.03140769660708745,0.7385923033929126
0.229,0.03143793328740714,0.7395620667125928
0.228,0.03147057240677797,0.740529427593222
0.227,0.03150561727302896,0.7414943827269711
0.226,0.03154307127123563,0.7424569287287643
0.225,0.03158293786442029,0.7434170621355798
0.224,0.031625220594267804,0.7443747794057323
0.223,0.03166992308185717,0.7453300769181429
0.222,0.031717049028409744,0.7462829509715903
0.221,0.03176660221605383,0.7472333977839462
0.22,0.03181858650860602,0.748181413491394
0.219,0.031873005852370455,0.7491269941476296
0.218,0.03192986427695508,0.7500701357230449
0.217,0.031989165896106536,0.7510108341038935
0.2168246275567564,0.032,0.7511753724432435
0.216,0.03205162696800495,0.7519483730319951
0.215,0.03211672451771343,0.7528832754822866
0.214,0.032184311304847134,0.7538156886951529
0.213,0.0322543917909628,0.7547456082090372
0.212,0.03232697052760074,0.7556730294723993
0.211,0.03240205215724451,0.7565979478427556
0.21,0.03247964141430244,0.7575203585856976
0.209,0.03255974312611044,0.7584402568738896
0.208,0.032642362213957325,0.7593576377860427
0.207,0.032727503694133055,0.760272496305867
0.206,0.032815172678999964,0.7611848273210001
0.205,0.032905374378088305,0.7620946256219118
0.204,0.032998114099215735,0.7630018859007843
0.202,0.03319383885544861,0.7648061611445515
0.2,0.03339994043097004,0.76660005956903
0.198,0.03361643934352319,0.7683835606564768
0.196,0.033843383591411286,0.7701566164085888
0.194,0.0340819037915339,0.7719180962084662
0.192,0.03433320071403051,0.7736667992859696
0.19,0.034595230950103875,0.7754047690498962
0.188,0.03486805007843974,0.7771319499215603
0.186,0.03515370520070396,0.7788462947992961
0.184,0.03545213248530301,0.7805478675146971
0.182,0.03576166145341891,0.7822383385465812
0.18,0.03608341723652213,0.783916582763478
0.178,0.03641961375378838,0.7855803862462116
0.176,0.03676724597604678,0.7872327540239533
0.174,0.03712798572775901,0.7888720142722411
0.172,0.037503392660519365,0.7904966073394807
0.171,0.03769551376763302,0.7913044862323669
0.17,0.03789059309234882,0.7921094069076511
0.16944771181612786,0.038,0.7925522881838721
0.169,0.03808974507152933,0.7929102549284707
0.168,0.03829327350616438,0.7937067264938356
0.167,0.03849982489990108,0.7945001751000988
0.166,0.03870940990433807,0.7952905900956619
0.165,0.03892203935376323,0.7960779606462367
0.1646386742940128,0.039,0.7963613257059872
0.164,0.03913941352640386,0.7968605864735961
0.163,0.039360845458571735,0.7976391545414282
0.162,0.03958538980119882,0.7984146101988011
0.161,0.03981305823395346,0.7991869417660465
0.16019013004045224,0.04,0.7998098699595477
0.16,0.040044392851701444,0.7999556071482985
0.159,0.040281171211334,0.800718828788666
0.158,0.040521144494183446,0.8014788555058165
0.157,0.04076432529691978,0.8022356747030802
0.15604355623883703,0.041,0.8029564437611629
0.156,0.041010854275735434,0.8029891457242645
0.155,0.041263462037650474,0.8037365379623495
0.154,0.04151935128536214,0.8044806487146379
0.153,0.04177853561188941,0.8052214643881106
0.15215638031892778,0.042,0.8058436196810722
0.152,0.04204151117873179,0.8059584888212682
0.151,0.042310449986545,0.806689550013455
0.15,0.04258276126408158,0.8074172387359184
0.149,0.04285845968885629,0.8081415403111437
0.14849301443279447,0.043,0.8085069855672055
0.148,0.0431391559252301,0.8088608440747699
0.147,0.04342494782831595,0.809575052171684
0.146,0.04371420801752344,0.8102857919824765
0.14502376241325568,0.044,0.8109762375867443
0.145,0.04400703201545129,0.8109929679845487
0.144,0.044306668841743654,0.8116933311582564
0.143,0.04460985820865472,0.8123901417913453
0.142,0.04491661696699456,0.8130833830330054
0.14173143692393209,0.045,0.8132685630760679
0.141,0.045229530313234664,0.8137704696867654
0.14,0.04554702789081675,0.8144529721091832
0.139,0.045868183525313355,0.8151318164746866
0.13859434333744625,0.046,0.8154056566625537
0.138,0.04619517420282688,0.8158048257971731
0.137,0.04652737148640512,0.8164726285135948
0.136,0.04686331917228294,0.8171366808277171
0.13559780619475986,0.047,0.8174021938052402
0.135,0.04720528204002925,0.8177947179599707
0.134,0.04755258389864348,0.8184474161013565
0.133,0.04790373246721367,0.8190962675327863
0.13272895428695552,0.048,0.8192710457130444
0.132,0.04826157871388174,0.8197384212861183
0.131,0.04862440437851002,0.82037559562149
0.13,0.04899117733096943,0.8210088226690305
0.12997621667950843,0.049,0.8210237833204915
0.129,0.049365836469634515,0.8216341635303654
0.128,0.0497446206075325,0.8222553793924675
0.1273330634330697,0.05,0.8226669365669302
0.127,0.05012882333891043,0.8228711766610896
0.126,0.05051987914956944,0.8234801208504305
0.125,0.05091507303523674,0.8240849269647632
0.12478744283599844,0.051,0.8242125571640015
0.124,0.051317765879278714,0.8246822341207213
0.123,0.05172558671890565,0.8252744132810943
0.12233420314847794,0.052,0.825665796851522
0.122,0.05213910691177147,0.8258608930882285
0.121,0.05255983149188833,0.8264401685081116
0.12,0.05298490012200982,0.8270150998779902
0.1199648592600835,0.053,0.8270351407399165
0.119,0.053418655332208936,0.8275813446677911
0.118,0.05385700698576285,0.8281429930142371
0.11767722178997668,0.054,0.8283227782100233
0.117,0.0543029222185734,0.8286970777814266
0.116,0.054754852106557686,0.8292451478934423
0.1154631372862511,0.055,0.8295368627137488
0.115,0.05521351340515361,0.8297864865948464
0.114,0.05567932518180986,0.8303206748181902
0.11331855011209319,0.056,0.8306814498879067
0.113,0.056151328733174286,0.8308486712668257
0.112,0.05663133494496532,0.8313686650550347
0.11123964222721719,0.057,0.8317603577727828
0.111,0.05711728798706188,0.8318827120129382
0.11,0.05761181055289144,0.8323881894471086
0.10922281500296582,0.058,0.8327771849970341
0.109,0.05811233230318892,0.8328876676968111
0.108,0.05862170302872996,0.8333782969712701
0.10726467254590849,0.059,0.8337353274540915
0.107,0.059137425639632514,0.8338625743603675
0.106,0.05966198676894562,0.8343380132310544
0.10536200637621185,0.06,0.8346379936237882
0.105,0.0601935563158577,0.8348064436841424
0.104,0.060733661123838656,0.8352663388761614
0.10351178132333007,0.061,0.8354882186766699
0.103,0.0612817386318512,0.8357182613681489
0.102,0.0618377520614533,0.8361622479385468
0.1017111225157464,0.062,0.8362888774842536
0.101,0.062403014576972775,0.8365969854230273
0.1,0.06297531392561113,0.8370246860743888
0.09995730335386484,0.063,0.8370426966461351
0.099,0.06355845563968243,0.8374415443603176
0.09825044476025702,0.064,0.8377495552397429
0.098,0.06414884594464579,0.8378511540553543
0.097,0.06474916473034437,0.8382508352696556
0.09658628361088542,0.065,0.8384137163891145
0.096,0.06535860784753719,0.8386413921524628
0.095,0.06597627823054232,0.8390237217694577
0.0949619822931265,0.066,0.8390380177068735
0.094,0.06660551798089569,0.8393944820191044
0.09337937105379837,0.067,0.8396206289462016
0.093,0.06724323958190676,0.8397567604180933
0.092,0.06789077014031558,0.8401092298596844
0.0918329953686576,0.068,0.8401670046313423
0.091,0.06854954663207107,0.840450453367929
0.09032384876275991,0.069,0.84067615123724
0.09,0.06921760803917999,0.84078239196082
0.089,0.06989623182474138,0.8411037681752587
0.08884861396267137,0.07,0.8411513860373285
0.088,0.07058666601175188,0.8414133339882481
0.08740794362227551,0.071,0.8415920563777245
0.087,0.07128722326316345,0.8417127767368366
0.086,0.07199824753774359,0.8420017524622565
0.08599756010511934,0.072,0.8420024398948807
0.085,0.07272256194688693,0.8422774380531131
0.08462072453149666,0.073,0.8423792754685033
0.084,0.0734578771425448,0.8425421228574552
0.08327228064604976,0.074,0.8427277193539503
0.083,0.07420453625170309,0.842795463748297
0.082,0.074963221681397,0.843036778318603
0.08195201052500899,0.075,0.843047989474991
0.081,0.07573567541545201,0.843264324584548
0.08066132376915246,0.076,0.8433386762308476
0.08,0.07652041249591313,0.8434795875040869
0.07939658627404314,0.077,0.8436034137259569
0.079,0.07731779991718392,0.8436822000828161
0.07815712098655624,0.078,0.8438428790134438
0.078,0.07812821161699958,0.8438717883830005
0.077,0.07895245323132952,0.8440475467686706
0.07694289628601472,0.079,0.8440571037139853
0.076,0.07979149522117818,0.8442085047788219
0.07575409495743345,0.08,0.8442459050425666
0.075,0.08064459448494424,0.8443554055150558
0.07458839039305404,0.081,0.8444116096069461
0.074,0.08151215444359855,0.8444878455564016
0.07344517721990569,0.082,0.8445548227800943
0.073,0.08239458714510825,0.8446054128548918
0.07232386463353843,0.083,0.8446761353664616
0.072,0.0832923136669773,0.8447076863330227
0.0712238758186091,0.084,0.8447761241813909
0.071,0.08420576453365318,0.8447942354663469
0.07014464738846607,0.085,0.844855352611534
0.07,0.08513538015010143,0.8448646198498985
0.06908562884231959,0.086,0.8449143711576804
0.069,0.08608161125292939,0.8449183887470707
0.06804628203862616,0.087,0.8449537179613739
0.068,0.08704491938052362,0.8449550806194763
0.06702608068336402,0.088,0.844973919316636
0.067,0.08802577736377502,0.844974222636225
0.06602450983189198,0.089,0.844975490168108
0.066,0.08902466983906114,0.8449753301609388
0.06504106540312461,0.09,0.8449589345968754
0.065,0.09004209378529852,0.8449579062147016
0.0640752537047515,0.091,0.8449247462952485
0.064,0.0910785590869975,0.8449214409130025
0.06312659096825357,0.092,0.8448734090317465
0.063,0.09213458912542644,0.8448654108745737
0.06219460289244759,0.093,0.8448053971075524
0.062,0.09321072140014741,0.8447892785998525
0.06127882419429628,0.094,0.8447211758057037
0.061,0.09430750818339825,0.8446924918166018
0.0603787981656822,0.095,0.8446212018343178
0.06,0.09542551720999294,0.844574482790007
0.059494076234826734,0.096,0.8445059237651733
0.059,0.0965653324056751,0.844434667594325
0.0586242175309788,0.097,0.8443757824690212
0.058,0.09772755465711094,0.844272445342889
0.057768788450950986,0.098,0.844231211549049
0.057,0.09891280262703095,0.844087197372969
0.05692736222600364,0.099,0.8440726377739964
0.05610069945568269,0.1,0.8438993005443173
0.056,0.10012274771766627,0.8438772522823337
0.05528824281240755,0.101,0.8437117571875925
0.055,0.1013579561136233,0.8436420438863766
0.05448872598139866,0.102,0.8435112740186014
0.054,0.10261836870123257,0.8433816312987674
0.05370174522337154,0.103,0.8432982547766285
0.053,0.10390469007920937,0.8430953099207906
0.05292690176415243,0.104,0.8430730982358476
0.052165795738870466,0.105,0.8428342042611295
0.052,0.1052194879786768,0.8427805120213232
0.051417105528589725,0.106,0.8425828944714103
0.051,0.10656270678021691,0.842437293219783
0.05067956155174598,0.107,0.842320438448254
0.05,0.10793432341252407,0.8420656765874759
0.04995278186765729,0.108,0.8420472181323427
0.049239330731992596,0.109,0.8417606692680074
0.049,0.1093379758043274,0.8416620241956726
0.04853665271337244,0.11,0.8414633472866275
0.048,0.11077247917548659,0.8412275208245134
0.04784379233863126,0.111,0.8411562076613688
0.047162409947599404,0.112,0.8408375900524007
0.047,0.11224016380752784,0.8407598361924721
0.046492251261614395,0.113,0.8405077487383856
0.046,0.1137421168949176,0.8402578831050823
0.0458309902977796,0.114,0.8401690097022204
0.04518056117408396,0.115,0.839819438825916
0.045,0.11527970941604194,0.839720290583958
0.04454064984019329,0.116,0.8394593501598068
0.044,0.11685405254142948,0.8391459474585705
0.043908737481770356,0.117,0.8390912625182296
0.04328820287477483,0.118,0.8387117971252251
0.043,0.11846792219864533,0.8385320778013546
0.04267632906469313,0.119,0.8383236709353069
0.04207252152855306,0.12,0.837927478471447
0.042,0.12012103560820708,0.8378789643917929
0.04147992541334233,0.121,0.8375200745866577
0.041,0.12181709680820504,0.8371829031917949
0.04089392839065162,0.122,0.8371060716093484
0.0403184382749864,0.123,0.8366815617250136
0.04,0.12355747976777132,0.8364425202322286
0.03975046162333513,0.124,0.8362495383766648
0.03919080216341217,0.125,0.8358091978365878
0.039,0.1253435335101873,0.8356564664898127
0.03864011662767372,0.126,0.8353598833723263
0.038095972686526446,0.127,0.8349040273134736
0.038,0.1271777455190453,0.8348222544809547
0.0375618593587265,0.128,0.8344381406412735
0.03703292488180173,0.129,0.8339670751181982
0.037,0.1290627377939552,0.8339372622060448
0.036514673870517156,0.13,0.8334853261294829
0.03600065154576122,0.131,0.8329993484542387
0.036,0.13100127761090244,0.8329987223890976
0.03549756059684934,0.132,0.8325024394031506
0.035,0.13299632080423462,0.8320036791957653
0.03499818779999557,0.133,0.8320018122000045
0.034509534595499984,0.134,0.8314904654045
0.03402447807451653,0.135,0.8309755219254835
0.034,0.1350508671168154,0.8309491328831846
0.03354962373678805,0.136,0.8304503762632119
0.03307863689742012,0.137,0.8299213631025799
0.033,0.13716828951886478,0.8298317104811352
0.03261686681480417,0.138,0.8293831331851959
0.03215968445659141,0.139,0.8288403155434085
0.032,0.13935203475254446,0.8286479652474555
0.03171031155611744,0.14,0.8282896884438825
0.03126667592140853,0.141,0.8277333240785915
0.031,0.14160579822294617,0.8273942017770538
0.030829012496346175,0.142,0.8271709875036538
0.030398673087461126,0.143,0.8266013269125388
0.03,0.1439335117237011,0.8260664882762989
0.02997202868933184,0.144,0.8260279713106682
0.029554742111964044,0.145,0.8254452578880359
0.029140635484196063,0.146,0.8248593645158039
0.029,0.1463423488462949,0.824657651153705
0.02873395104029762,0.147,0.8242660489597023
0.028332586631390336,0.148,0.8236674133686096
0.028,0.14883514359721425,0.8231648564027857
0.027935367072413387,0.149,0.8230646329275866
0.02754651676101807,0.15,0.8224534832389819
0.027160684676184522,0.151,0.8218393153238155
0.027,0.15141985942134417,0.8215801405786558
0.026781495873496243,0.152,0.8212185041265038
0.0264078856721321,0.153,0.8205921143278678
0.02603720901014881,0.154,0.8199627909898511
0.026,0.1541012259256851,0.8198987740743149
0.025674984702820633,0.155,0.8193250152971794
0.025316247377449166,0.156,0.8186837526225508
0.025,0.15688867129901568,0.8181113287009842
0.024961039631983123,0.157,0.8180389603680168
0.024614035738892936,0.158,0.817385964261107
0.024269815963749365,0.159,0.8167301840362506
0.024,0.1597902954474961,0.8162097045525039
0.023929622669348918,0.16,0.816070377330651
0.023596870552475127,0.161,0.8154031294475248
0.02326682437682051,0.162,0.8147331756231795
0.023,0.1628151753593111,0.8141848246406889
0.02294055938838338,0.163,0.8140594406116166
0.02262172395152849,0.164,0.8133782760484715
0.02230551833491078,0.165,0.8126944816650892
0.022,0.1659742830387862,0.8120257169612137
0.021992080339196717,0.166,0.8120079196608032
0.02168683718877216,0.167,0.8113131628112278
0.021384149605807725,0.168,0.8106158503941923
0.02108400729309198,0.169,0.809915992706908
0.021,0.16928237478103272,0.8097176252189673
0.020790450307595246,0.17,0.8092095496924047
0.020500968425248848,0.171,0.8084990315747511
0.01756634356623487,0.182,0.8004336564337651
0.017078850833819964,0.184,0.7989211491661801
0.017,0.18432811192177015,0.7986718880782299
0.016841951347975125,0.185,0.7981580486520248
0.01660893888310917,0.186,0.7973910611168908
0.016378102521988895,0.187,0.796621897478011
0.016149435035715066,0.188,0.7958505649642849
0.016,0.18865984231658642,0.7953401576834136
0.01592466082724287,0.189,0.7950753391727572
0.015705353425472694,0.19,0.7942946465745273
0.015488150264020933,0.191,0.793511849735979
0.015273044624547151,0.192,0.7927269553754528
0.015060029885269619,0.193,0.7919399701147303
0.015,0.19328468658112485,0.7917153134188751
0.014852635186951043,0.194,0.7911473648130489
0.014648680143080739,0.195,0.7903513198569192
0.014446752627052585,0.196,0.7895532473729474
0.014246846484288575,0.197,0.7887531535157115
0.014048955648153045,0.198,0.7879510443518469
0.014,0.19825000707507154,0.7877499929249284
0.013856676259398707,0.199,0.7871433237406014
0.013667555175685615,0.2,0.7863324448243143
0.013480386991541237,0.201,0.7855196130084587
0.013295166068579412,0.202,0.7847048339314207
0.013111886848602948,0.203,0.7838881131513971
0.013,0.20361709206968504,0.783382907930315
0.012932332441192816,0.204,0.7830676675588072
0.01275754319891392,0.205,0.7822424568010862
0.012584633915127319,0.206,0.7814153660848727
0.012413599424813073,0.207,0.7805864005751869
0.012244434636136788,0.208,0.7797555653638633
0.012077134529515334,0.209,0.7789228654704847
0.012,0.2094663431206283,0.7785336568793717
0.01191409438939826,0.21,0.7780859056106018
0.011754958233389666,0.211,0.7772450417666104
0.011597625648915075,0.212,0.776402374351085
0.011442091972525265,0.213,0.7755579080274748
0.011288352606780303,0.214,0.7747116473932197
0.011136403019441504,0.215,0.7738635969805585
0.011,0.21590839327288416,0.7730916067271159
0.01098663562777274,0.216,0.7730133643722273
0.01084253372168964,0.217,0.7721574662783104
0.010700160723535464,0.218,0.7712998392764646
0.010559512424239494,0.219,0.7704404875757606
0.010420584674337562,0.22,0.7695794153256624
0.010283373383272268,0.221,0.7687166266167278
0.010147874518706938,0.222,0.7678521254812931
0.010014084105853069,0.223,0.766985915894147
0.01,0.22310666737030518,0.7668933326296948
0.00988563508734528,0.224,0.7661143649126547
0.009759271568707168,0.225,0.7652407284312929
0.009634555908498581,0.226,0.7643654440915014
0.009511484417049722,0.227,0.7634885155829503
0.00939005345735124,0.228,0.7626099465426488
0.009270259444470791,0.229,0.7617297405555292
0.009152098844980833,0.23,0.7608479011550192
0.009035568176397238,0.231,0.7599644318236027
0.009,0.2313096322279322,0.7596903677720678
0.008923297004140431,0.232,0.7590767029958596
0.008813778095541236,0.233,0.7581862219044587
0.008705828214258006,0.234,0.757294171785742
0.008599444129740938,0.235,0.7564005558702591
0.008494622658071006,0.236,0.755505377341929
0.008391360661472601,0.237,0.7546086393385274
0.008289655047835305,0.238,0.7537103449521647
0.008189502770244652,0.239,0.7528104972297553
0.00809090082652171,0.24,0.7519090991734783
0.008,0.24093661840539524,0.7510633815946047
0.007994068362341166,0.241,0.7510059316376588
0.007902006894048057,0.242,0.7500979931059519
0.007811434053033598,0.243,0.7491885659469664
0.007722347056573346,0.244,0.7482776529434266
0.007634743162884228,0.245,0.7473652568371157
0.0075486196707243575,0.246,0.7464513803292756
0.007463973919000479,0.247,0.7455360260809996
0.007380803286382535,0.248,0.7446191967136174
0.00729910519092536,0.249,0.7437008948090746
0.007218877089697399,0.25,0.7427811229103026
0.007140116478416172,0.251,0.7418598835215838
0.007062820891090402,0.252,0.7409371791089095
0.007,0.25282846606203135,0.7401715339379686
0.0069875054594629215,0.253,0.7400124945405371
0.00691609220661823,0.254,0.7390839077933817
0.006846081053590843,0.255,0.7381539189464091
0.006777469716548484,0.256,0.7372225302834515
0.006710255946689234,0.257,0.7362897440533107
0.006644437529930448,0.258,0.7353555624700695
0.006580012286603547,0.259,0.7344199877133964
0.006516978071154295,0.26,0.7334830219288457
0.0064553327718484465,0.261,0.7325446672281516
0.006395074310482851,0.262,0.7316049256895172
0.006336200642101803,0.263,0.7306637993578982
0.006278709754718502,0.264,0.7297212902452815
0.006222599669041676,0.265,0.7287774003309583
0.0061678684382070635,0.266,0.7278321315617929
0.0061145141475140025,0.267,0.726885485852486
0.0060625349141665225,0.268,0.7259374650858335
0.006011928887019568,0.269,0.7249880711129805
0.006,0.2692423566077548,0.7247576433922451
0.005964358911145937,0.27,0.7240356410888541
0.005918631142810585,0.271,0.7230813688571894
0.005874211745802961,0.272,0.722125788254197
0.005831099006269513,0.273,0.7211689009937304
0.005789291239288118,0.274,0.7202107087607119
0.005748786788647208,0.275,0.7192512132113528
0.005709584026629281,0.276,0.7182904159733707
0.005671681353798044,0.277,0.717328318646202
0.005635077198789679,0.278,0.7163649228012103
0.005599770018107849,0.279,0.7154002299818921
0.0055657582959224025,0.28,0.7144342417040775
0.005533040543871897,0.281,0.713466959456128
0.005501615300869686,0.282,0.7124983846991304
0.005471481132913613,0.283,0.7115285188670863
0.005442636632899295,0.284,0.7105573633671007
0.005415080420436755,0.285,0.7095849195795634
0.005388811141670655,0.286,0.7086111888583293
0.005363827469103675,0.287,0.7076361725308964
0.005340128101423445,0.288,0.7066598718985766
0.005317711763332569,0.289,0.7056822882366673
0.0052965772053819886,0.29,0.7047034227946181
0.0052767232038074055,0.291,0.7037232767961925
0.005258148560369004,0.292,0.7027418514396311
0.005240852102193986,0.293,0.701759147897806
0.0052248326816225045,0.294,0.7007751673183775
0.005210089176056159,0.295,0.6997899108239438
0.0051966204878098965,0.296,0.6988033795121902
0.005184425543966386,0.297,0.6978155744560337
0.005173503296233732,0.298,0.6968264967037663
0.005163852720805351,0.299,0.6958361472791947
0.005155472818223592,0.3,0.6948445271817765
0.005148362613244901,0.301,0.6938516373867551
0.005142521154709078,0.302,0.692857478845291
0.005137947515409764,0.303,0.6918620524845902
0.005134640791968972,0.304,0.6908653592080309
0.005132600104712988,0.305,0.6898673998952871
0.005131824597551826,0.306,0.6888681754024482
0.005132313437860511,0.307,0.6878676865621396
0.005134065816363405,0.308,0.6868659341836365
0.005137080947020561,0.309,0.6858629190529795
0.005141358066916944,0.31,0.6848586419330831
0.00514689643615363,0.311,0.6838531035638464
0.0051536953377418785,0.312,0.6828463046622582
0.005161754077499044,0.313,0.681838245922501
0.005171071983947324,0.314,0.6808289280160527
0.005181648408214316,0.315,0.6798183515917857
0.005193482723936409,0.316,0.6788065172760636
0.005206574327163691,0.317,0.6777934256728364
0.005220922636268007,0.318,0.6767790773637319
0.005236527091852171,0.319,0.6757634729081479
0.00525338715666245,0.32,0.6747466128433375
0.005271502315502077,0.321,0.6737284976844979
0.005290872075147992,0.322,0.672709127924852
0.0053114959642687086,0.323,0.6716885040357312
0.005333373533344975,0.324,0.670666626466655
0.005356504354592079,0.325,0.6696434956454078
0.005380888021884459,0.326,0.6686191119781155
0.005406524150682069,0.327,0.6675934758493178
0.00543341237795904,0.328,0.666566587622041
0.005461552362134037,0.329,0.6655384476378658
0.005490943783002788,0.33,0.6645090562169973
0.005521586341672404,0.331,0.6634784136583276
0.005553479760497757,0.332,0.6624465202395022
0.00558662378301969,0.333,0.6614133762169803
0.0056210181739050295,0.334,0.660378981826095
0.005656662718888704,0.335,0.6593433372811113
0.0056935572247174306,0.336,0.6583064427752825
0.005731701519095548,0.337,0.6572682984809044
0.0057710954506322975,0.338,0.6562289045493677
0.005811738888791401,0.339,0.6551882611112085
0.005853631723841882,0.34,0.6541463682761581
0.005896773866811159,0.341,0.6531032261331888
0.005941165249439518,0.342,0.6520588347505605
0.005986805824136696,0.343,0.6510131941758632
0.006,0.34328147176264967,0.6507185282373503
0.006035319294465477,0.344,0.6499646807055346
0.006085779711467781,0.345,0.6489142202885323
0.006137551663069173,0.346,0.6478624483369309
0.006190635275797298,0.347,0.6468093647242027
0.006245030698101197,0.348,0.6457549693018988
0.006300738100321715,0.349,0.6446992618996783
0.006357757674663778,0.35,0.6436422423253363
0.00641608963517059,0.351,0.6425839103648294
0.006475734217699373,0.352,0.6415242657823006
0.006536691679899092,0.353,0.6404633083201009
0.006598962301189714,0.354,0.6394010376988103
0.006662546382743414,0.355,0.6383374536172566
0.006727444247467339,0.356,0.6372725557525327
0.006793656239988306,0.357,0.6362063437600117
0.006861182726638866,0.358,0.6351388172733612
0.006930024095445572,0.359,0.6340699759045545
0.007,0.3599974246995062,0.6330025753004938
0.00700018860662699,0.36,0.632999811393373
0.00707476667311289,0.361,0.6319252333268871
0.007150721195964461,0.362,0.6308492788040355
0.007228052767217574,0.363,0.6297719472327824
0.007306762002061368,0.364,0.6286932379979386
0.007386849538842876,0.365,0.6276131504611572
0.007468316039073098,0.366,0.626531683960927
0.007551162187434995,0.367,0.625448837812565
0.00763538869179335,0.368,0.6243646113082066
0.007720996283206303,0.369,0.6232790037167937
0.007807985715938653,0.37,0.6221920142840613
0.007896357767477082,0.371,0.6211036422325229
0.0079861132385469,0.372,0.6200138867614531
0.008,0.372152430652287,0.619847569347713
0.008080327937604652,0.373,0.6189196720623954
0.008176539179559966,0.374,0.61782346082044
0.00827419551391824,0.375,0.6167258044860817
0.00837329797396103,0.376,0.615626702026039
0.008473847617899903,0.377,0.6145261523821001
0.008575845528912598,0.378,0.6134241544710874
0.008679292815180775,0.379,0.6123207071848192
0.00878419060992991,0.38,0.61121580939007
0.008890540071470986,0.381,0.610109459928529
0.008998342383244127,0.382,0.6090016576167558
0.009,0.382015179541243,0.608984820458757
0.009111571782667367,0.383,0.6078884282173326
0.009226375953140189,0.384,0.6067736240468597
0.009342695138049008,0.385,0.605657304861951
0.009460530780079586,0.386,0.6045394692199204
0.009579884348975743,0.387,0.6034201156510243
0.009700757341605071,0.388,0.602299242658395
0.0098231512820266,0.389,0.6011768487179734
0.00994706772156069,0.39,0.6000529322784393
0.01,0.3904221045434333,0.5995778954565667
0.010075015697197752,0.391,0.5989249843028023
0.010206376714329874,0.392,0.5977936232856701
0.01033932317882997,0.393,0.59666067682117
0.010473856927093367,0.394,0.5955261430729066
0.010609979824951911,0.395,0.594390020175048
0.010747693767768894,0.396,0.5932523062322311
0.010887000680536295,0.397,0.5921129993194637
0.011,0.3978020633573645,0.5911979366426354
0.011028813438410152,0.398,0.5909711865615899
0.011175967768681178,0.399,0.5898240322313189
0.011324779150111108,0.4,0.5886752208498889
0.01147524981928844,0.401,0.5875247501807115
0.011627382044873558,0.402,0.5863726179551264
0.01178117812772459,0.403,0.5852188218722754
0.011936640401025768,0.404,0.5840633595989742
0.012,0.40440337395759374,0.5835966260424063
0.012096681707789839,0.405,0.5829033182922101
0.012260417576021188,0.406,0.5817395824239788
0.012425885382542108,0.407,0.5805741146174579
0.01259308780168379,0.408,0.5794069121983163
0.01276202754286105,0.409,0.5782379724571389
0.012932707350733371,0.41,0.5770672926492666
0.013,0.41039042817524357,0.5766095718247564
0.01310824866322199,0.411,0.5758917513367781
0.013287589394448907,0.412,0.5747124106055512
0.01346873778213347,0.413,0.5735312622178665
0.013651696942242214,0.414,0.5723483030577579
0.013836470029076758,0.415,0.5711635299709232
0.014,0.4158764840651671,0.5701235159348329
0.01402371688052846,0.416,0.5699762831194715
0.014217496839141629,0.417,0.5687825031608584
0.014413160238049453,0.418,0.5675868397619506
0.014610710633169583,0.419,0.5663892893668305
0.014810151622190395,0.42,0.5651898483778097
0.015,0.4209429837918671,0.5640570162081329
0.015011802179426268,0.421,0.5639881978205739
0.015220618904659153,0.422,0.5627793810953408
0.01543139804455484,0.423,0.5615686019554451
0.015644143631858717,0.424,0.5603558563681412
0.01585885974491523,0.425,0.5591411402550848
0.016,0.4256515074644658,0.5583484925355342
0.016077557567367465,0.426,0.5579224424326326
0.016302042472602366,0.427,0.5566979575273976
0.016528572417605334,0.428,0.5554714275823947
0.01675715195275566,0.429,0.5542428480472443
0.016987785678306597,0.43,0.5530122143216933
0.017,0.4300525285181128,0.5529474714818872
0.017226165496775293,0.431,0.5517738345032248
0.01746698686075425,0.432,0.5505330131392459
0.01770994001942578,0.433,0.5492900599805741
0.017955030086054126,0.434,0.5480449699139458
0.018,0.43418200927456085,0.5478179907254391
0.018207339167301394,0.435,0.5467926608326985
0.018462987972503453,0.436,0.5455370120274965
0.018720854296699938,0.437,0.5442791457033
0.018980943806750944,0.438,0.5430190561932491
0.019,0.4380726996859894,0.5429273003140106
0.019249219748115002,0.439,0.5417507802518851
0.01952026292164693,0.44,0.5404797370783532
0.019793613255273058,0.441,0.539206386744727
0.02,0.44174884731725683,0.5382511526827432
0.020070934799459542,0.442,0.5379290652005404
0.0203555781034394,0.443,0.5366444218965607
0.020642615703448313,0.444,0.5353573842965518
0.020932054441395273,0.445,0.5340679455586048
0.021,0.4452329672074008,0.5337670327925992
0.021229152785180234,0.446,0.5327708472148198
0.021530328153157006,0.447,0.531469671846843
0.02183399588518801,0.448,0.530166004114812
0.022,0.44854242242194453,0.5294575775780554
0.022143389092735527,0.449,0.5288566109072645
0.02245917805904353,0.45,0.5275408219409565
0.02277755445863201,0.451,0.526222445541368
0.023,0.45169323407119083,0.5253067659288091
0.02310075519113037,0.452,0.5248992448088696
0.02343166038001973,0.453,0.5235683396199802
0.02376525226404046,0.454,0.5222347477359595
0.024,0.4546982583047188,0.5213017416952812
0.024103801214229705,0.455,0.5208961987857703
0.02445035370678105,0.456,0.519549646293219
0.024799696721674997,0.457,0.5182003032783249
0.025,0.4575690543907124,0.5174309456092876
0.025155174735408577,0.458,0.5168448252645914
0.025517935937766786,0.459,0.5154820640622333
0.025883596454650284,0.46,0.5141164035453496
0.026,0.4603160451993776,0.5136839548006225
0.026257636158879022,0.461,0.512742363841121
0.026637199887449756,0.462,0.5113628001125503
0.027,0.4629483570881222,0.5100516429118778
0.02702020082206502,0.463,0.5099797991779349
0.027414074353270777,0.464,0.5085859256467291
0.027811069152525493,0.465,0.5071889308474744
0.028,0.46547244634091994,0.5065275536590801
0.02821567774299396,0.466,0.505784322257006
0.028627522812365917,0.467,0.5043724771876341
0.029,0.4678974400688008,0.5031025599311991
0.029043509631361993,0.468,0.5029564903686379
0.02947066084340429,0.469,0.5015293391565957
0.02990117660700673,0.47,0.5000988233929933
0.03,0.4702279621820225,0.49977203781797747
0.03034205672685081,0.471,0.49865794327314916
0.030788482067981363,0.472,0.4972115179320187
0.031,0.4724704109266196,0.49652958907338035
0.031243342557483178,0.473,0.49575665744251685
0.031706189316541865,0.474,0.4942938106834581
0.032,0.4746301322394406,0.49336986776055936
0.03217621704951453,0.475,0.49282378295048546
0.032656025009716455,0.476,0.4913439749902836
0.033,0.476711573152732,0.490288426847268
0.03314245378542197,0.477,0.489857546214578
0.033639792466166676,0.478,0.48836020753383336
0.034,0.47871888132060275,0.4872811186793972
0.034143909817304724,0.479,0.48685609018269527
0.034659380445871205,0.48,0.48534061955412877
0.035,0.48065593049790756,0.4843440695020924
0.03518253472832721,0.481,0.4838174652716728
0.03571677240594923,0.482,0.48228322759405073
0.036,0.4825263433684498,0.4814736566315502
0.036260380262952634,0.483,0.4807396197370474
0.03681405634381736,0.484,0.4791859436561826
0.037,0.4843335120538289,0.47866648794617106
0.03737961063866816,0.485,0.4776203893613319
0.03795343534314115,0.486,0.4760465646568589
0.038,0.4860806165854816,0.4759193834145184
0.03854251365861192,0.487,0.47445748634138807
0.039,0.48776950489034193,0.47323049510965803
0.039139993147725205,0.488,0.4728600068522748
0.03975151275390967,0.489,0.47124848724609036
0.04,0.48940348200345396,0.470596517996546
0.04037531995752053,0.49,0.4696246800424795
0.041,0.4909855396710996,0.4680144603289004
0.04100936416395553,0.491,0.4679906358360445
0.04166116455761051,0.492,0.4663388354423895
0.042,0.4925160695129928,0.46548393048700715
0.04232464179376823,0.493,0.46467535820623174
0.043,0.4939994303731751,0.46300056962682484
0.04300039330949846,0.494,0.46299960669050155
0.04369535838267565,0.495,0.4613046416173243
0.044,0.49543520561582016,0.4605647943841798
0.044404012151278385,0.496,0.4595959878487216
0.045,0.49682721114919565,0.4581727888508043
0.04512722715348646,0.497,0.4578727728465135
0.045868583210644395,0.498,0.45613141678935565
0.046,0.49817606334133385,0.4558239366586661
0.046628607066291114,0.499,0.4543713929337089
0.047,0.49948336205658345,0.4535166379434165
0.047405785832361644,0.5,0.45259421416763834
0.048,0.5007512267848954,0.4512487732151046
0.04820117632757126,0.501,0.45079882367242874
0.049,0.501980912718732,0.44901908728126794
0.04901589365028715,0.502,0.44898410634971286
0.04985411835512159,0.503,0.44714588164487845
0.05,0.5031728360640847,0.44682716393591526
0.0507140102854165,0.504,0.44528598971458355
0.051,0.5043290246757653,0.4446709753242346
0.05159654826891015,0.505,0.44340345173108986
0.052,0.5054506679502565,0.44254933204974345
0.05250311079751418,0.506,0.44149688920248586
0.053,0.5065388252882563,0.4404611747117436
0.053435164928662154,0.507,0.4395648350713378
0.054,0.5075945154230668,0.4384054845769332
0.054394274954288245,0.508,0.4376057250457117
0.055,0.5086187185014134,0.43638128149858657
0.05538211198701181,0.509,0.4356178880129882
0.056,0.5096123780280292,0.4343876219719708
0.05640046459008435,0.51,0.4335995354099157
0.057,0.5105764026851498,0.43242359731485014
0.05745125059661472,0.511,0.4315487494033853
0.058,0.5115116680369634,0.4304883319630366
0.05853653028599201,0.512,0.42946346971400795
0.059,0.5124190181280902,0.42858098187190985
0.06081961420809637,0.514,0.42518038579190365
0.061,0.5141532000229294,0.42484679997707064
0.063,0.5157842095559321,0.421215790444068
0.06327586858960789,0.516,0.4207241314103921
0.065,0.5173176857547279,0.41768231424527213
0.0659315601694707,0.518,0.4160684398305293
0.067,0.5187586913971289,0.4142413086028711
0.06883145662901621,0.52,0.41116854337098374
0.069,0.5201116348293715,0.41088836517062854
0.071,0.5213800768391059,0.4076199231608941
0.072,0.521984578345028,0.40601542165497206
0.07202624343121371,0.522,0.4059737565687863
0.073,0.5225685442468513,0.40443145575314876
0.07376176097262677,0.523,0.4032382390273732
0.074,0.5231340736527437,0.4028659263472564
0.075,0.5236803705647873,0.4013196294352127
0.07560354189616175,0.524,0.40039645810383817
0.076,0.5242086221227028,0.39979137787729724
0.077,0.5247187178430543,0.3982812821569457
0.077569406353944,0.525,0.39743059364605593
0.078,0.5252113594425015,0.3967886405574985
0.079,0.5256865888798785,0.3953134111201215
0.07968201021198452,0.526,0.39431798978801547
0.08,0.5261452048190453,0.3938547951809548
0.081,0.5265868383026537,0.3924131616973463
0.08196945650543819,0.527,0.3910305434945618
0.082,0.5270129349476502,0.3909870650523498
0.083,0.527422182650951,0.38957781734904906
0.084,0.5278164617049701,0.38818353829502994
0.08448301954099129,0.528,0.38751698045900873
0.085,0.5281952095742749,0.38680479042572513
0.086,0.5285587494187564,0.3854412505812437
0.087,0.5289080215387999,0.38409197846120013
0.08727393328956691,0.529,0.3837260667104331
0.088,0.5292422664093096,0.38275773359069043
0.089,0.5295623399879903,0.38143766001200974
0.09,0.52986880208367,0.38013119791633
0.09044714110577334,0.53,0.37955285889422663
0.091,0.5301612062742744,0.3788387937257256
0.092,0.530439914291672,0.377560085708328
0.093,0.5307056265076608,0.3762943734923392
0.094,0.5309585224756836,0.3750414775243164
0.09417231022792072,0.531,0.37482768977207925
0.095,0.5311979999558978,0.37380200004410225
0.096,0.5314248978419707,0.37257510215802936
0.097,0.5316395475710802,0.3713604524289198
0.098,0.5318421149500471,0.37015788504995295
0.0988278221107952,0.532,0.36917217788920476
0.099,0.5320326352512555,0.3689673647487445
0.1,0.5322108276589512,0.3677891723410488
0.101,0.5323774635369439,0.3666225364630561
0.102,0.5325326964801106,0.36546730351988943
0.103,0.5326766774149817,0.3643233225850183
0.104,0.53280955467165,0.36319044532835
0.105,0.5329314740530544,0.3620685259469456
0.10561622259516658,0.533,0.3613837774048334
0.106,0.5330424144383202,0.3609575855616798
0.107,0.5331424581393778,0.35985754186062224
0.108,0.5332320080063144,0.3587679919936856
0.109,0.5333111997674493,0.3576888002325507
0.11,0.5333801669463064,0.3566198330536936
0.111,0.5334390409172185,0.3555609590827815
0.112,0.5334879509590384,0.35451204904096156
0.113,0.533527024307042,0.353472975692958
0.114,0.533556386203098,0.35244361379690203
0.115,0.5335761599441796,0.3514238400558204
0.116,0.5335864669292893,0.35041353307071066
0.117,0.53358742670486,0.34941257329513997
0.118,0.5335791570086991,0.34842084299130094
0.119,0.5335617738125322,0.3474382261874678
0.12,0.5335353913632073,0.34646460863679274
0.121,0.5335001222226087,0.34549987777739133
0.122,0.5334560773063378,0.3445439226936622
0.123,0.5334033659212051,0.3435966340787949
0.124,0.5333420958015822,0.3426579041984178
0.125,0.5332723731446598,0.3417276268553402
0.126,0.5331943026446507,0.34080569735534927
0.127,0.5331079875259817,0.33989201247401835
0.128,0.5330135295755101,0.3389864704244899
0.12813172810414375,0.533,0.3388682718958562
0.129,0.5329106888604598,0.3380893111395402
0.13,0.5327998229639164,0.3372001770360836
0.131,0.5326810817350809,0.3363189182649191
0.132,0.5325545619204076,0.3354454380795924
0.133,0.5324203589696451,0.33457964103035487
0.134,0.5322785670630584,0.33372143293694156
0.135,0.5321292791379005,0.33287072086209946
0.13582471237177213,0.532,0.3321752876282278
0.136,0.531972482149549,0.33202751785045104
0.137,0.5318078497329207,0.33119215026707927
0.138,0.5316359659305295,0.33036403406947046
0.139,0.531456919322285,0.329543080677715
0.14,0.531270797361011,0.32872920263898897
0.141,0.5310776863950417,0.32792231360495827
0.14138784333093354,0.531,0.3276121566690664
0.142,0.530877204293285,0.327122795706715
0.143,0.5306695803588141,0.3263304196411859
0.144,0.5304551950617882,0.3255448049382118
0.145,0.530234130879658,0.324765869120342
0.146,0.5300064692844386,0.32399353071556136
0.1460275618842519,0.53,0.32397243811574805
0.147,0.5297714204281078,0.3232285795718922
0.148,0.5295298856276918,0.3224701143723082
0.149,0.5292819685054898,0.32171803149451017
0.15,0.5290277470105545,0.32097225298944543
0.15010630929108507,0.529,0.32089369070891494
0.151,0.5287664080109853,0.3202335919890147
0.152,0.5284987889478651,0.3195012110521349
0.153,0.5282250715526948,0.31877492844730515
0.15380419587586774,0.528,0.3181958041241322
0.154,0.5279451210959348,0.31805487890406514
0.155,0.527658336459859,0.31734166354014093
0.156,0.5273656533658195,0.31663434663418044
0.157,0.5270671442444439,0.3159328557555561
0.1572202666162415,0.527,0.31577973338375853
0.158,0.5267619716552868,0.31523802834471315
0.159,0.5264508371174421,0.31454916288255785
0.16,0.526134068452406,0.313865931547594
0.1604153481497461,0.526,0.31358465185025386
0.161,0.5258110124604459,0.31318898753955404
0.162,0.5254819256458633,0.3125180743541367
0.163,0.5251473911633178,0.3118526088366822
0.16343302110027927,0.525,0.31156697889972074
0.164,0.5248067364762897,0.31119326352371024
0.165,0.5244601822619134,0.3105398177380866
0.166,0.5241083616704066,0.3098916383295933
0.1663030056735941,0.524,0.30969699432640585
0.167,0.5237503831725674,0.30924961682743257
0.168,0.5233868328880351,0.30861316711196485
0.169,0.5230181926032034,0.3079818073967966
0.16904857466653878,0.523,0.3079514253334612
0.17,0.5226431559288977,0.3073568440711023
0.171,0.5222630680491068,0.30673693195089313
0.17168275700215646,0.522,0.3063172429978436
0.172,0.521877591012209,0.3061224089877911
0.174,0.5210900447279116,0.3049099552720884
0.176,0.5202807239703104,0.3037192760296896
0.17668111043236176,0.52,0.3033188895676382
0.178,0.5194503439127202,0.3025496560872799
0.18,0.5185991441151357,0.3014008558848643
0.18137873931493445,0.518,0.30062126068506556
0.182,0.5177273595455825,0.3002726404544176
0.184,0.5168352207369558,0.2991647792630443
0.1858321158330911,0.516,0.29816788416690887
0.186,0.5159229539371936,0.2980770460628065
0.188,0.5149907812531377,0.29700921874686237
0.19,0.5140387690364537,0.2959612309635463
0.1900802575277951,0.514,0.29591974247220487
0.192,0.5130673227798543,0.2949326772201457
0.194,0.5120766884357354,0.29392331156426466
0.1941527096340282,0.512,0.2938472903659718
0.196,0.5110670724666599,0.2929329275333401
0.198,0.5100386778412535,0.2919613221587466
0.19807424566767418,0.51,0.2919257543323258
0.2,0.508991671377516,0.29100832862248405
0.20186187729751226,0.508,0.29013812270248773
0.202,0.5079260562329446,0.2900739437670554
0.204,0.506842178408013,0.289157821591987
0.205,0.5062933644230452,0.28870663557695486
0.2055307242796722,0.506,0.28846927572032777
0.206,0.5057402283230911,0.28825977167690897
0.207,0.5051826684735135,0.2878173315264866
0.20732518998456928,0.505,0.2876748100154307
0.208,0.5046203934135195,0.28737960658648054
0.209,0.5040542164862939,0.28694578351370614
0.20909501446354595,0.504,0.28690498553645405
0.21,0.503482858222237,0.286517141777763
0.2108398990716344,0.503,0.28616010092836563
0.211,0.5029078246339526,0.2860921753660475
0.212,0.5023278044890171,0.2856721955109829
0.21256161519064637,0.502,0.2854383848093536
0.213,0.5017437519316371,0.2852562480683629
0.214,0.5011554112364724,0.2848445887635276
0.21426234843451605,0.501,0.2847376515654839
0.215,0.5005623924337791,0.28443760756622094
0.21594262302558653,0.5,0.28405737697441347
0.216,0.49996571762826963,0.2840342823717304
0.217,0.4993639213912244,0.28363607860877565
0.21760129464865904,0.499,0.28339870535134093
0.218,0.4987583400570463,0.28324165994295375
0.219,0.49814851153521483,0.2828514884647852
0.21924197027180045,0.498,0.2827580297281995
0.22,0.49753407357816753,0.2824659264218325
0.22086425838589058,0.497,0.28213574161410937
0.221,0.4969159949052781,0.2820840050947219
0.222,0.49629308742411093,0.2817069125758891
0.2224678980941639,0.496,0.2815321019058361
0.223,0.4956662076179347,0.28133379238206535
0.224,0.49503554848871334,0.2809644515112867
0.22405600346779853,0.495,0.2809439965322015
0.225,0.4943999148323663,0.28060008516763374
0.22562593169694503,0.494,0.280374068303055
0.226,0.49376065190657065,0.2802393480934294
0.227,0.49311728019376583,0.2798827198062342
0.22718121589710086,0.493,0.2798187841028992
0.228,0.4924693149452898,0.27953068505471024
0.2287205573257515,0.492,0.27927944267424853
0.229,0.49181772383083616,0.27918227616916386
0.23,0.4911618424426073,0.2788381575573927
0.23024539871371721,0.491,0.2787546012862828
0.231,0.49050159822057315,0.27849840177942686
0.23175584297008206,0.49,0.2782441570299179
0.232,0.48983773016073373,0.2781622698392663
0.233,0.48916953895343956,0.27783046104656045
0.23325239223631536,0.489,0.2777476077636847
0.234,0.48849706476628985,0.27750293523371017
0.23473548698529964,0.488,0.27726451301470034
0.235,0.48782096742070336,0.27717903257929666
0.236,0.48714066335266254,0.2768593366473375
0.2362056938740791,0.487,0.27679430612592093
0.237,0.4864560046984884,0.27654399530151164
0.23766286004769438,0.486,0.2763371399523056
0.238,0.485767722240821,0.276232277759179
0.239,0.4850754995194587,0.2759245004805413
0.23910849641723353,0.485,0.2758915035827665
0.24,0.48437869847964565,0.27562130152035436
0.24054104148748598,0.484,0.275458958512514
0.241,0.48367827168923433,0.2753217283107657
0.2419634297914841,0.483,0.2750365702085159
0.242,0.48297421505264426,0.27502578494735574
0.243,0.4822654172391476,0.2747345827608524
0.24337285086141952,0.482,0.27462714913858055
0.244,0.48155288358697296,0.27444711641302705
0.24477227009718064,0.481,0.2742277299028194
0.245,0.48083671634862196,0.27416328365137804
0.246,0.48011642307687896,0.27388357692312104
0.24616087547879312,0.48,0.27383912452120684
0.247,0.4793918168061886,0.2736081831938114
0.24753840730796406,0.479,0.27346159269203596
0.248,0.4786635719486673,0.2733364280513327
0.2489067860674297,0.478,0.27309321393257036
0.249,0.47793168319197005,0.27306831680802995
0.25,0.477195321552801,0.272804678447199
0.25026414086065313,0.477,0.27273585913934684
0.251,0.47645502892288183,0.27254497107711817
0.2516120091745266,0.476,0.2723879908254734
0.252,0.47571108564014514,0.27228891435985486
0.25295122946591575,0.475,0.27204877053408427
0.253,0.4749634856849419,0.2720365143150581
0.254,0.47421132601227023,0.27178867398772977
0.2542798526792925,0.474,0.2717201473207076
0.255,0.47345535375483927,0.2715446462451607
0.25559980720342024,0.473,0.2714001927965798
0.256,0.4726957163330808,0.2713042836669192
0.2569115727437761,0.472,0.27108842725622395
0.257,0.47193240701653466,0.27106759298346533
0.258,0.47116471520831965,0.27083528479168034
0.2582137186259161,0.471,0.2707862813740839
0.259,0.4703930616658811,0.2706069383341189
0.25950734683918014,0.47,0.27049265316081983
0.26,0.46961772600929447,0.2703822739907055
0.26079320443237963,0.469,0.2702067955676204
0.261,0.4688387007921706,0.2701612992078294
0.262,0.46805573865238054,0.26994426134761945
0.26207089640206516,0.468,0.2699291035979348
0.263,0.4672683938756383,0.2697316061243617
0.2633396425979033,0.467,0.26966035740209665
0.264,0.46647734759832277,0.2695226524016772
0.26460100045271834,0.466,0.2693989995472816
0.265,0.46568259165141146,0.2693174083485885
0.2658550668291096,0.465,0.26914493317089044
0.266,0.46488411765603593,0.26911588234396405
0.267,0.4640815630441292,0.2689184369558708
0.2671012416394799,0.464,0.2688987583605201
0.268,0.46327478554281065,0.26872521445718933
0.268339385131112,0.463,0.268660614868888
0.269,0.46246427581431165,0.26853572418568833
0.26957057937365525,0.462,0.26842942062634473
0.27,0.461650024744524,0.268349975255476
0.2707949113776721,0.461,0.2682050886223279
0.271,0.4608320230034243,0.2681679769965757
0.272,0.4600102162953926,0.26798978370460735
0.2720123836195075,0.46,0.26798761638049245
0.273,0.45918392155996235,0.26781607844003763
0.27322185403091537,0.459,0.2677781459690846
0.274,0.4583538597211354,0.2676461402788646
0.2744247696635355,0.458,0.2675752303364644
0.275,0.45752002069835185,0.26747997930164813
0.27562120893147124,0.457,0.26737879106852874
0.276,0.4566823941882182,0.26731760581178177
0.27681124861127837,0.456,0.2671887513887216
0.277,0.4558409696625136,0.2671590303374864
0.2779949638842978,0.455,0.2670050361157022
0.278,0.4549957363661441,0.2670042636338559
0.279,0.4541460345212257,0.26685396547877427
0.2791713257949276,0.454,0.26682867420507245
0.28,0.4532924965966014,0.26670750340339855
0.2803415269978725,0.453,0.26665847300212747
0.281,0.4524351301020403,0.2665648698979597
0.2815056692937658,0.452,0.26649433070623413
0.282,0.45157392350211834,0.26642607649788164
0.2826638207175046,0.451,0.26633617928249537
0.283,0.45070886502630125,0.26629113497369883
0.2838160479342549,0.45,0.26618395206574513
0.284,0.44983994266662236,0.2661600573333776
0.2849624162734193,0.449,0.26603758372658076
0.285,0.4489671441753017,0.2660328558246984
0.286,0.44809005115437234,0.26590994884562763
0.2861023536312299,0.448,0.26589764636877006
0.287,0.44720892448643346,0.2657910755135666
0.28723636896123056,0.447,0.2657636310387695
0.288,0.4463238984204338,0.26567610157956617
0.2883647560158493,0.446,0.26563524398415067
0.289,0.4454349598921918,0.2655650401078083
0.2894875741371373,0.445,0.26551242586286267
0.29,0.44454209558806485,0.2654579044119351
0.2906048815128087,0.444,0.2653951184871913
0.291,0.44364529194226615,0.2653547080577339
0.29171673520372854,0.443,0.26528326479627146
0.292,0.4427445351341213,0.26525546486587864
0.2928231911705985,0.442,0.2651768088294015
0.293,0.44183981108525944,0.26516018891474064
0.293924304299868,0.441,0.26507569570013195
0.294,0.44093110545674086,0.2650688945432591
0.295,0.4400183194111382,0.26498168058886185
0.2950200092095805,0.44,0.2649799907904195
0.296,0.4391012241360863,0.26489877586391364
0.29611006347698876,0.439,0.26488993652301124
0.297,0.438180119212922,0.2648198807870781
0.29719496845486293,0.438,0.26480503154513707
0.298,0.43725498942661484,0.2647450105733851
0.2982747742144307,0.437,0.2647252257855693
0.299,0.436325819289847,0.2646741807101531
0.29934952989146674,0.436,0.2646504701085332
0.3,0.43539259303979694,0.264607406960203
0.3004192837074699,0.435,0.26458071629253005
0.301,0.4344552946348512,0.26454470536514885
0.30148408299024965,0.434,0.26451591700975036
0.302,0.43351390775124266,0.2644860922487573
0.3025439741939414,0.433,0.2644560258060586
0.303,0.43256841577961413,0.26443158422038593
0.30359900291846775,0.432,0.26440099708153225
0.304,0.43161880182150564,0.2643811981784943
0.3046492139284646,0.431,0.26435078607153534
0.305,0.4306650486857638,0.2643349513142363
0.30569465117168904,0.43,0.26430534882831097
0.306,0.4297071388848717,0.26429286111512823
0.30673535779692496,0.429,0.26426464220307505
0.307,0.42874505463119855,0.2642549453688015
0.3077713761714028,0.428,0.2642286238285972
0.308,0.42777877783316587,0.2642212221668341
0.30880274789774914,0.427,0.2641972521022509
0.309,0.42680829009133003,0.26419170990867
0.30982951383047874,0.426,0.26417048616952127
0.31,0.4258335726943786,0.26416642730562134
0.3108517140920467,0.425,0.2641482859079533
0.311,0.42485460661503915,0.2641453933849609
0.3118693880884717,0.424,0.26413061191152826
0.312,0.42387137250589835,0.2641286274941016
0.31288257452454377,0.423,0.2641174254754562
0.313,0.4228838506951293,0.26411614930487076
0.3138913114186316,0.422,0.26410868858136843
0.314,0.42189202118212654,0.2641079788178734
0.31489563611709864,0.421,0.2641043638829013
0.315,0.4208958636330443,0.26410413636695573
0.31589558530834233,0.42,0.26410441469165774
0.316,0.4198953573762386,0.2641046426237613
0.3168911950364663,0.419,0.26410880496353367
0.317,0.4188904813976092,0.26410951860239085
0.31788250071459767,0.418,0.26411749928540235
0.318,0.41788121433584025,0.2641187856641597
0.31886953713785954,0.417,0.2641304628621404
0.319,0.41686753447753677,0.2641324655224633
0.319852338496009,0.416,0.264147661503991
0.32,0.4158494197522554,0.2641505802477445
0.32083093838575144,0.415,0.2641690616142485
0.321,0.41482684772742684,0.2641731522725732
0.3218053698227389,0.414,0.26419463017726114
0.322,0.4137997956031665,0.26420020439683345
0.3227756652532644,0.413,0.2642243347467356
0.323,0.4127682402069732,0.2642317597930268
0.3237418565656584,0.412,0.26425814343434156
0.324,0.4117321579883111,0.26426784201168885
0.324703975101399,0.411,0.2642960248986011
0.325,0.41069152501307316,0.2643084749869269
0.325662051665941,0.41,0.26433794833405905
0.326,0.4096463169579243,0.2643536830420756
0.32661611653927497,0.409,0.2643838834607251
0.327,0.40859650910451956,0.2644034908954805
0.3275661994862225,0.408,0.2644338005137776
0.328,0.4075420763335963,0.26445792366640364
0.32851232976647504,0.407,0.264487670233525
0.329,0.40648299311893654,0.2645170068810635
0.3303928468985139,0.405,0.2646071531014861
0.331,0.40435077118159996,0.2646492288184001
0.33225789227638547,0.403,0.2647421077236145
0.333,0.40219963070576376,0.2648003692942363
0.3341076827610817,0.401,0.26489231723891826
0.335,0.40002935218409025,0.2649706478159098
0.33594213640876924,0.399,0.26505786359123074
0.337,0.39783887932389217,0.26516112067610786
0.3377611354282938,0.397,0.2652388645717062
0.339,0.3956285425422428,0.26537145745775725
0.33956542743401097,0.395,0.265434572565989
0.341,0.3933982477612704,0.2656017522387296
0.3413552041791824,0.393,0.26564479582081757
0.343,0.3911477419143683,0.26585225808563173
0.34313065111555074,0.391,0.26586934888444924
0.344,0.39001482850698105,0.265985171493019
0.3440130571916023,0.39,0.26598694280839774
0.34489141681956476,0.389,0.2661085831804353
0.345,0.3888761069434968,0.26612389305650325
0.3457662048726702,0.388,0.2662337951273298
0.346,0.38773208872117504,0.266267911278825
0.34663750709338653,0.387,0.2663624929066135
0.347,0.3865828175452079,0.2664171824547921
0.3475053445100925,0.386,0.2664946554899075
0.348,0.3854282577800867,0.2665717422199133
0.3483697378048648,0.385,0.2666302621951352
0.349,0.38426837320876106,0.26673162679123896
0.34923070731948785,0.384,0.2667692926805122
0.35,0.3831031270225303,0.2668968729774697
0.3500882730613257,0.383,0.26691172693867427
0.3509421774896112,0.382,0.2670578225103888
0.351,0.38193211332364135,0.26706788667635867
0.35179227901051136,0.381,0.26720772098948864
0.352,0.3807550656385374,0.2672449343614626
0.3526390235198014,0.38,0.26736097648019863
0.353,0.37957250569558054,0.2674274943044195
0.3534824299333649,0.379,0.2675175700666351
0.354,0.3783843936146225,0.2676156063853775
0.35432251685582455,0.378,0.2676774831441754
0.355,0.3771906888570065,0.2678093111429935
0.3551593025857554,0.377,0.26784069741424466
0.35599277100388255,0.376,0.2680072289961174
0.356,0.3759913019903748,0.26800869800962523
0.356822205771332,0.375,0.26817779422866805
0.357,0.3747851404947309,0.26821485950526913
0.357648382316629,0.374,0.268351617683371
0.358,0.37357322059500153,0.2684267794049985
0.3584713179306805,0.373,0.26852868206931957
0.359,0.3723554983193052,0.2686445016806948
0.3592910296189872,0.372,0.2687089703810128
0.36,0.3711319289601103,0.2688680710398897
0.360107534106277,0.371,0.26889246589372306
0.36092047828967283,0.37,0.2690795217103271
0.361,0.36990191120378785,0.26909808879621216
0.36172973498983185,0.369,0.26927026501016815
0.362,0.3686651622095694,0.2693348377904306
0.3625358239306658,0.368,0.26946417606933426
0.363,0.3674223834623454,0.2695776165376546
0.3633387609041029,0.367,0.2696612390958971
0.364,0.3661735264029503,0.2698264735970497
0.36413856143971096,0.366,0.269861438560289
0.3649349420888484,0.365,0.27006505791115165
0.365,0.36491806844200736,0.27008193155799265
0.3657275670061148,0.364,0.27027243299388515
0.366,0.3636553813544037,0.27034461864559634
0.36651709225308393,0.363,0.2704829077469161
0.367,0.3623864176142657,0.2706135823857343
0.36730353248075126,0.362,0.2706964675192488
0.368,0.3611111244107695,0.2708888755892305
0.36808690209455514,0.361,0.2709130979054448
0.36886661000367793,0.36,0.2711333899963221
0.369,0.35982843756331856,0.27117156243668145
0.3696428703785011,0.359,0.27135712962149894
0.37,0.3585386061562165,0.2714613938437835
0.370416094367825,0.358,0.27158390563217505
0.371,0.35724222958042695,0.27175777041957305
0.37118629554808363,0.357,0.27181370445191644
0.3719532770896462,0.356,0.2720467229103538
0.372,0.35593888443499694,0.27206111556500306
0.37271641081138923,0.355,0.27228358918861084
0.373,0.35462737047611187,0.27237262952388813
0.3734765541007646,0.354,0.2725234458992355
0.374,0.35330908047606885,0.27269091952393115
0.3742337197396798,0.353,0.27276628026032024
0.3749878661745911,0.352,0.2730121338254089
0.375,0.3519838544989356,0.2730161455010644
0.37573800310369626,0.351,0.2732619968963037
0.376,0.3506497842682726,0.2733502157317274
0.3764851929699679,0.35,0.27351480703003206
0.377,0.3493086905893444,0.2736913094106556
0.37722944779300016,0.349,0.27377055220699986
0.377970649589127,0.348,0.27402935041087295
0.378,0.34796026120605195,0.27403973879394805
0.37870791148396177,0.347,0.27429208851603826
0.379,0.3466026966401212,0.2743973033598788
0.3794422671923766,0.346,0.2745577328076234
0.38,0.34523784315924844,0.27476215684075156
0.3801737280017309,0.345,0.27482627199826914
0.38090187470181336,0.344,0.27509812529818667
0.381,0.343864777355382,0.275135222644618
0.3816263754561271,0.343,0.2753736245438729
0.382,0.3424827098876358,0.2755172901123642
0.38234800849154393,0.342,0.27565199150845604
0.383,0.34109306827449404,0.27590693172550596
0.38306678439125413,0.341,0.2759332156087459
0.38378176448163187,0.34,0.27621823551836805
0.384,0.33969381087879835,0.27630618912120164
0.3844936103438212,0.339,0.27650638965617874
0.385,0.3382861545363306,0.2767138454636694
0.3852026246240503,0.338,0.2767973753759497
0.385908421100223,0.337,0.2770915788997769
0.386,0.3368697692758315,0.2771302307241685
0.3866105180072164,0.336,0.2773894819927836
0.387,0.3354434775975213,0.2775565224024787
0.387309807782215,0.335,0.27769019221778496
0.388,0.33400906124609653,0.27799093875390346
0.388006299854274,0.334,0.27799370014572605
0.388698710884911,0.333,0.27830128911508906
0.389,0.33256353721588633,0.27843646278411366
0.3893883109247716,0.332,0.27861168907522843
0.39,0.33110957049815787,0.2788904295018421
0.3900751361592995,0.331,0.2789248638407004
0.39075816332719154,0.33,0.2792418366728085
0.391,0.32964473641860553,0.27935526358139445
0.3914381060758996,0.329,0.2795618939241004
0.392,0.32817050730054137,0.2798294926994586
0.39211529585638155,0.328,0.2798847041436184
0.3927888446194031,0.327,0.2802111553805969
0.393,0.3266853733601496,0.2803146266398504
0.39345916021077304,0.326,0.2805408397892269
0.394,0.3251901259147101,0.2808098740852899
0.39412674362524325,0.325,0.28087325637475674
0.3947907189652352,0.324,0.2812092810347648
0.395,0.32368363233608405,0.28131636766391593
0.395451435236742,0.323,0.281548564763258
0.396,0.3221665631493848,0.2818334368506152
0.3961094390906193,0.322,0.28189056090938075
0.39676374546528864,0.321,0.2822362545347114
0.397,0.320637573848545,0.28236242615145496
0.39741488796979824,0.32,0.2825851120302017
0.398,0.3190978280571489,0.28290217194285106
0.39806333679663464,0.319,0.28293666320336536
0.3987078780908606,0.318,0.2832921219091394
0.399,0.31754512360420284,0.28345487639579714
0.39934947010626015,0.317,0.2836505298937399
0.3999883375506048,0.316,0.2840116624493952
0.4,0.3159816573717216,0.28401834262827835
0.4006230656528756,0.315,0.28437693434712447
0.401,0.31440406030808477,0.2845959396919152
0.401255128189599,0.314,0.2847448718104009
0.40188405055029985,0.313,0.28511594944970015
0.402,0.31281480125753036,0.2851851987424696
0.4025092517658767,0.312,0.2854907482341233
0.403,0.311212002096239,0.28578799790376097
0.40313180357231726,0.311,0.28586819642768274
0.40375068300399747,0.31,0.2862493169960026
0.404,0.3095954754911834,0.2864045245088166
0.4043663748069842,0.309,0.2866336251930159
0.40497934734142904,0.308,0.28702065265857096
0.405,0.3079661338236263,0.28703386617637366
0.40558817027121924,0.307,0.2874118297287808
0.406,0.3063210062428842,0.28767899375711575
0.40619436786971225,0.306,0.2878056321302878
0.40679711432892124,0.305,0.2882028856710787
0.407,0.30466185934189954,0.28833814065810043
0.4073964423765126,0.304,0.2886035576234874
0.4079931306387658,0.303,0.28900686936123415
0.408,0.3029884246007161,0.28901157539928396
0.40858557914822863,0.302,0.2894144208517713
0.409,0.3012977608518987,0.2897022391481013
0.4091754239548103,0.301,0.2898245760451897
0.409761700707985,0.3,0.290238299292015
0.41,0.29959163548914775,0.29040836451085233
0.41034466326333674,0.299,0.2906553367366633
0.41092472882733233,0.298,0.2910752711726677
0.411,0.2978695280901,0.2911304719099
0.411500797988168,0.297,0.29149920201183205
0.412,0.2961297181008423,0.29187028189915776
0.4120742826284556,0.296,0.29192571737154444
0.4126437486995431,0.295,0.2923562513004569
0.413,0.2943716238220557,0.2926283761779443
0.4132103351515843,0.294,0.2927896648484157
0.4137734351671264,0.293,0.2932265648328736
0.414,0.2925955890316795,0.2934044109683206
0.41433311108965803,0.292,0.29366688891034204
0.41488977633878144,0.291,0.2941102236612186
0.415,0.29080085804109446,0.2941991419589055
0.41544252894114864,0.29,0.2945574710588514
0.41599269031885233,0.289,0.2950073096811477
0.416,0.2889866298225128,0.2950133701774873
0.4165385063520551,0.288,0.295461493647945
0.417,0.28715072257352775,0.2958492774264722
0.4170817659938049,0.287,0.29591823400619516
0.4176209600934294,0.286,0.2963790399065706
0.418,0.28529359469733273,0.29670640530266734
0.4181572746403421,0.285,0.2968427253596579
0.4186898060383623,0.284,0.29731019396163766
0.419,0.2834144170015127,0.29758558299848725
0.41921916095484335,0.283,0.2977808390451567
0.4197449591384079,0.282,0.2982550408615921
0.42,0.28151218472811484,0.2984878152718852
0.42078633339942634,0.28,0.2992136666005736
0.4218138418568224,0.278,0.3001861581431775
0.422,0.2776342059884147,0.30036579401158536
0.4228273965501566,0.276,0.3011726034498434
0.42382690849710364,0.274,0.3021730915028964
0.424,0.27365021359523545,0.3023497864047646
0.4248122876667356,0.272,0.30318771233326436
0.4257834429521003,0.27,0.3042165570478996
0.426,0.2695494213173658,0.30445057868263425
0.42674028214206994,0.268,0.30525971785793005
0.4276827118924306,0.266,0.3063172881075693
0.428,0.26531944920179723,0.30668055079820283
0.4286106376961821,0.264,0.30738936230381797
0.4295239638530178,0.262,0.30847603614698227
0.43,0.2609454142425755,0.30905458575742456
0.43042259343795225,0.26,0.3095774065620478
0.4313064282690608,0.258,0.31069357173093914
0.432,0.2564057597154301,0.31159424028456995
0.43217536887429747,0.256,0.31182463112570247
0.4330293144573527,0.254,0.3129706855426473
0.43386765308697334,0.252,0.3141323469130266
0.434,0.25168016229101203,0.314319837708988
0.43469062147611065,0.25,0.3153093785238894
0.43549822820328,0.248,0.31650177179672
0.436,0.24673757072909472,0.3172624292709053
0.43629036676991956,0.246,0.3177096332300804
0.43706692916111245,0.244,0.31893307083888756
0.43782714525643823,0.242,0.32017285474356183
0.438,0.24153839000612523,0.32046160999387485
0.43857125064990427,0.24,0.3214287493500958
0.4392993897673705,0.238,0.3227006102326295
0.44,0.2360323724620978,0.32396762753790226
0.44001144803586734,0.236,0.3239885519641327
0.4407061927195171,0.234,0.32529380728048296
0.441,0.23314011152935438,0.32585988847064556
0.4410477960521311,0.233,0.32595220394786895
0.44138452128394173,0.232,0.3266154787160582
0.4417174467438341,0.231,0.32728255325616595
0.442,0.23014113838881053,0.3278588616111895
0.44204635746299187,0.23,0.3279536425370082
0.44237033320554975,0.229,0.32862966679445027
0.44269040697104256,0.228,0.32930959302895746
0.443,0.22702064238660086,0.3299793576133991
0.44300651488596365,0.227,0.32999348511403637
