'p1','p2','p3'
0.17110487612868483,0.1489,0.6799951238713151
0.171,0.14893313946961834,0.6800668605303817
0.1711,0.14890153684928398,0.679998463150716
0.17110487612868483,0.1489,0.6799951238713151
