p1,p2,p3
0.24017813916743785,0.25,0.5098218608325622
0.21842500553601432,0.2,0.5815749944639856
0.2,0.1951331892499525,0.6048668107500476
0.14280096179955415,0.25,0.6071990382004459
0.14796905634866103,0.3,0.5520309436513389
0.15,0.3036485656352239,0.5463514343647761
0.2,0.3034456545134635,0.49655434548653654
0.20409851563201886,0.3,0.49590148436798115
0.24017813916743785,0.25,0.5098218608325622
